This is BibTeX, Version 0.99dThe top-level auxiliary file: thesis.aux
A level-1 auxiliary file: tex/summary.aux
A level-1 auxiliary file: tex/intro.aux
A level-1 auxiliary file: tex/background.aux
A level-1 auxiliary file: tex/gaussian.aux
A level-1 auxiliary file: tex/ground_exp.aux
A level-1 auxiliary file: tex/ohloh.tex.aux
A level-1 auxiliary file: tex/analysis_and_conclusions.aux
I couldn't open style file abbrv-rt.bst
---line 25 of file thesis.aux
 : \bibstyle{abbrv-rt
 :                   }
I'm skipping whatever remains of this command
A level-1 auxiliary file: tex/references.aux
A level-1 auxiliary file: ./tex/appendix.aux
I found no style file---while reading file thesis.aux
(There were 2 error messages)
